<?xml version="1.0" standalone="no"?>
<!DOCTYPE svg PUBLIC "-//W3C//DTD SVG 20010904//EN"
 "http://www.w3.org/TR/2001/REC-SVG-20010904/DTD/svg10.dtd">
<svg version="1.0" xmlns="http://www.w3.org/2000/svg"
 width="83.000000pt" height="355.000000pt" viewBox="0 0 83.000000 355.000000"
 preserveAspectRatio="xMidYMid meet">
<metadata>
Created by potrace 1.15, written by Peter Selinger 2001-2017
</metadata>
<g transform="translate(0.000000,355.000000) scale(0.100000,-0.100000)"
fill="#000000" stroke="none">
<path d="M475 3540 c-95 -13 -183 -78 -227 -169 -32 -65 -32 -187 0 -252 94
-192 343 -232 491 -79 139 143 90 394 -93 475 -62 28 -105 34 -171 25z"/>
</g>
</svg>
